{
  "statusCode": 200,
  "timestamp": "8/11/2021",
  "data": {
    "total": 53,
    "totalPage": 3,
    "previousPage": null,
    "currentPage": 1,
    "nextPage": 2,
    "perPage": 20,
    "data": [
      {
        "id": 198,
        "name": "Songkran Mission",
        "slug": "songkran-mission",
        "type": "default",
        "purchasable": "0",
        "price": 0,
        "duration": 0,
        "order": 1,
        "image": "https://d1bnvx5vhcnf8w.cloudfront.net/logo/logo.jpg"
      },
      {
        "id": 170,
        "name": "Chinese for Teens (Full Package)",
        "slug": "chinese-for-teens-full",
        "type": "chinese",
        "purchasable": "1",
        "price": 26900,
        "duration": 6,
        "order": 3,
        "image": "https://d1bnvx5vhcnf8w.cloudfront.net/product-images/chinese/teenagers.jpeg"
      },
      {
        "id": 168,
        "name": "Chinese for Kids (Full Package)",
        "slug": "chinese-for-kids",
        "type": "chinese",
        "purchasable": "0",
        "price": 26900,
        "duration": 6,
        "order": 4,
        "image": "https://d1bnvx5vhcnf8w.cloudfront.net/product-images/chinese/kid.jpeg"
      },
      {
        "id": 167,
        "name": "Business Chinese (Full Package)",
        "slug": "business-chinese",
        "type": "chinese",
        "purchasable": "1",
        "price": 26900,
        "duration": 6,
        "order": 1,
        "image": "https://d1bnvx5vhcnf8w.cloudfront.net/product-images/chinese/business.jpeg"
      },
      {
        "id": 166,
        "name": "Conversational Chinese (Full Package)",
        "slug": "conversational-chinese",
        "type": "chinese",
        "purchasable": "1",
        "price": 26900,
        "duration": 6,
        "order": 2,
        "image": "https://d1bnvx5vhcnf8w.cloudfront.net/product-images/chinese/coversation.jpeg"
      },
      {
        "id": 146,
        "name": "Tiếng Anh Thương Mại G5 + G6",
        "slug": "vn-business-english-g5+g6",
        "type": "business",
        "purchasable": "0",
        "price": 40000000,
        "duration": 12,
        "order": 3,
        "image": "https://d1bnvx5vhcnf8w.cloudfront.net/product-images/business.jpg"
      },
      {
        "id": 145,
        "name": "Tiếng Anh Thương Mại G4 + G5",
        "slug": "vn-business-english-g4+g5",
        "type": "business",
        "purchasable": "1",
        "price": 37400000,
        "duration": 12,
        "order": 99,
        "image": "https://d1bnvx5vhcnf8w.cloudfront.net/product-images/business.jpg"
      },
      {
        "id": 144,
        "name": "Tiếng Anh Thương Mại G3 + G4",
        "slug": "vn-business-english-g3+g4",
        "type": "business",
        "purchasable": "0",
        "price": 34900000,
        "duration": 12,
        "order": 2,
        "image": "https://d1bnvx5vhcnf8w.cloudfront.net/product-images/business.jpg"
      },
      {
        "id": 143,
        "name": "Tiếng Anh Thương Mại G2 + G3",
        "slug": "vn-business-english-g2+g3",
        "type": "business",
        "purchasable": "1",
        "price": 31900000,
        "duration": 12,
        "order": 99,
        "image": "https://d1bnvx5vhcnf8w.cloudfront.net/product-images/business.jpg"
      },
      {
        "id": 142,
        "name": "Tiếng Anh Thương Mại G1 + G2",
        "slug": "vn-business-english-g1+2",
        "type": "business",
        "purchasable": "1",
        "price": 28900000,
        "duration": 12,
        "order": 1,
        "image": "https://d1bnvx5vhcnf8w.cloudfront.net/product-images/business.jpg"
      },
      {
        "id": 141,
        "name": "Tiếng Anh Thương Mại G6",
        "slug": "vn-business-english-g6",
        "type": "business",
        "purchasable": "1",
        "price": 23500000,
        "duration": 6,
        "order": 99,
        "image": "https://d1bnvx5vhcnf8w.cloudfront.net/product-images/bg6.jpg"
      },
      {
        "id": 140,
        "name": "Tiếng Anh Thương Mại G5",
        "slug": "vn-business-english-g5",
        "type": "business",
        "purchasable": "1",
        "price": 23500000,
        "duration": 6,
        "order": 99,
        "image": "https://d1bnvx5vhcnf8w.cloudfront.net/product-images/bg5.jpg"
      },
      {
        "id": 139,
        "name": "Tiếng Anh Thương Mại G4",
        "slug": "vn-business-english-g4",
        "type": "business",
        "purchasable": "1",
        "price": 20500000,
        "duration": 6,
        "order": 99,
        "image": "https://d1bnvx5vhcnf8w.cloudfront.net/product-images/bg4.jpg"
      },
      {
        "id": 138,
        "name": "Tiếng Anh Thương Mại G3",
        "slug": "vn-business-english-g3",
        "type": "business",
        "purchasable": "1",
        "price": 20500000,
        "duration": 6,
        "order": 99,
        "image": "https://d1bnvx5vhcnf8w.cloudfront.net/product-images/bg3.jpg"
      },
      {
        "id": 137,
        "name": "Tiếng Anh Thương Mại G2",
        "slug": "vn-business-english-g2",
        "type": "business",
        "purchasable": "1",
        "price": 17000000,
        "duration": 6,
        "order": 99,
        "image": "https://d1bnvx5vhcnf8w.cloudfront.net/product-images/bg2.jpg"
      },
      {
        "id": 136,
        "name": "Tiếng Anh Thương Mại G1",
        "slug": "vn-business-english-g1",
        "type": "business",
        "purchasable": "1",
        "price": 17000000,
        "duration": 6,
        "order": 99,
        "image": "https://d1bnvx5vhcnf8w.cloudfront.net/product-images/bg1.jpg"
      },
      {
        "id": 135,
        "name": "Tiếng Anh Tổng Quan G5 + G6",
        "slug": "vn-general-english-g5+g6",
        "type": "general",
        "purchasable": "1",
        "price": 40000000,
        "duration": 12,
        "order": 94,
        "image": "https://d1bnvx5vhcnf8w.cloudfront.net/product-images/general.jpg"
      },
      {
        "id": 134,
        "name": "Tiếng Anh Tổng Quan G4 + G5",
        "slug": "vn-general-english-g4+g5",
        "type": "general",
        "purchasable": "1",
        "price": 37400000,
        "duration": 12,
        "order": 93,
        "image": "https://d1bnvx5vhcnf8w.cloudfront.net/product-images/general.jpg"
      },
      {
        "id": 133,
        "name": "Tiếng Anh Tổng Quan G3 + G4",
        "slug": "vn-general-english-g3+g4",
        "type": "general",
        "purchasable": "1",
        "price": 34900000,
        "duration": 12,
        "order": 92,
        "image": "https://d1bnvx5vhcnf8w.cloudfront.net/product-images/general.jpg"
      },
      {
        "id": 132,
        "name": "Tiếng Anh Tổng Quan G2 + G3",
        "slug": "vn-general-english-g2+g3",
        "type": "general",
        "purchasable": "1",
        "price": 31900000,
        "duration": 12,
        "order": 92,
        "image": "https://d1bnvx5vhcnf8w.cloudfront.net/product-images/general.jpg"
      }
    ]
  },
  "length": 0
}